{
  "success": true,
  "data": [
    {
      "id": "63a28f15-f5ec-4cea-ac48-2cfb92123de7",
      "name": "Apple TV 4K (128GB)",
      "description": "Streaming box with A15 chip and Thread support",
      "image": "data:image/jpeg;base64,/9j/4AAQSkZJRgABAQAAAQABAAD...",
      "price": "169",
      "stock": 85,
      "category": "Entertainment",
      "version": 1,
      "createdAt": "2025-08-18T02:11:04.752Z",
      "updatedAt": "2025-08-18T02:11:04.752Z"
    },
    {
      "id": "5ff2b57a-a0d1-441e-95ec-8ea69846cfc1",
      "name": "AirPods Pro (2nd gen)",
      "description": "ANC earbuds with USB-C case and Adaptive Audio",
      "image": "data:image/jpeg;base64,/9j/4AAQSkZJRgABAQAAAQABAAD...",
      "price": "249",
      "stock": 150,
      "category": "Audio",
      "version": 1,
      "createdAt": "2025-08-18T02:11:04.750Z",
      "updatedAt": "2025-08-18T02:11:04.750Z"
    },
    {
      "id": "64a19f75-35ee-4db6-99e0-25aba6adc7aa",
      "name": "Canon EOS R50",
      "description": "Entry-level mirrorless camera with RF mount",
      "image": "data:image/jpeg;base64,/9j/4AAQSkZJRgABAQAAAQABAAD...",
      "price": "679",
      "stock": 40,
      "category": "Cameras",
      "version": 1,
      "createdAt": "2025-08-18T02:11:04.748Z",
      "updatedAt": "2025-08-18T02:11:04.748Z"
    },
    {
      "id": "dc254efe-546b-4909-8865-62f50844f29b",
      "name": "Surface Pro 10",
      "description": "2-in-1 tablet PC with detachable keyboard (sold separately)",
      "image": "data:image/jpeg;base64,/9j/4AAQSkZJRgABAQAAAQABAAD...",
      "price": "1599",
      "stock": 25,
      "category": "Computers",
      "version": 1,
      "createdAt": "2025-08-18T02:11:04.746Z",
      "updatedAt": "2025-08-18T02:11:04.746Z"
    },
    {
      "id": "1741535e-3f02-44b8-af7f-acfb8d52f3c8",
      "name": "JBL Flip 6",
      "description": "Portable Bluetooth speaker, IP67 waterproof",
      "image": "data:image/jpeg;base64,/9j/4AAQSkZJRgABAQAAAQABAAD...",
      "price": "99",
      "stock": 130,
      "category": "Audio",
      "version": 1,
      "createdAt": "2025-08-18T02:11:04.744Z",
      "updatedAt": "2025-08-18T02:11:04.744Z"
    },
    {
      "id": "3ed17345-e195-4469-9b25-1c35ffdf6e28",
      "name": "Anker PowerCore 20000",
      "description": "High-capacity portable charger with fast charging",
      "image": "data:image/jpeg;base64,/9j/4AAQSkZJRgABAQAAAQABAAD...",
      "price": "49.99",
      "stock": 200,
      "category": "Accessories",
      "version": 1,
      "createdAt": "2025-08-18T02:11:04.742Z",
      "updatedAt": "2025-08-18T02:11:04.742Z"
    },
    {
      "id": "5831eb93-0676-4b3d-97f0-60d8227819da",
      "name": "GoPro HERO12 Black",
      "description": "4K action camera with advanced stabilization",
      "image": "data:image/jpeg;base64,/9j/4AAQSkZJRgABAQAAAQABAAD...",
      "price": "399.99",
      "stock": 65,
      "category": "Cameras",
      "version": 1,
      "createdAt": "2025-08-18T02:11:04.740Z",
      "updatedAt": "2025-08-18T02:11:04.740Z"
    },
    {
      "id": "0ce81d72-e079-469a-a8b0-efd489d18f9a",
      "name": "Philips Hue Starter Kit",
      "description": "Smart bulbs with hub, works with major assistants",
      "image": "data:image/jpeg;base64,/9j/4AAQSkZJRgABAQAAAQABAAD...",
      "price": "179.99",
      "stock": 55,
      "category": "Smart Home",
      "version": 1,
      "createdAt": "2025-08-18T02:11:04.738Z",
      "updatedAt": "2025-08-18T02:11:04.738Z"
    },
    {
      "id": "b515ad32-59ab-48da-9ba3-c9259e17a0da",
      "name": "Instant Pot Duo 6-Qt",
      "description": "7-in-1 electric pressure cooker and slow cooker",
      "image": "data:image/jpeg;base64,/9j/4AAQSkZJRgABAQAAAQABAAD...",
      "price": "89.99",
      "stock": 75,
      "category": "Home & Kitchen",
      "version": 1,
      "createdAt": "2025-08-18T02:11:04.735Z",
      "updatedAt": "2025-08-18T02:11:04.735Z"
    },
    {
      "id": "d981365a-a424-4f36-8f23-0e375c4de601",
      "name": "Dyson V12 Detect Slim",
      "description": "Cordless vacuum with laser dust detection",
      "image": "data:image/jpeg;base64,/9j/4AAQSkZJRgABAQAAAQABAAD...",
      "price": "599",
      "stock": 45,
      "category": "Home & Kitchen",
      "version": 1,
      "createdAt": "2025-08-18T02:11:04.733Z",
      "updatedAt": "2025-08-18T02:11:04.733Z"
    }
  ],
  "meta": {
    "page": 1,
    "limit": 10,
    "total": 20,
    "totalPages": 2,
    "hasNext": true,
    "hasPrev": false,
    "requestId": "find-products-1755489775043",
    "timestamp": "2025-08-18T04:02:55.043Z"
  }
}